<!-- Generated by IcoMoon.io -->
<svg version="1.1" xmlns="http://www.w3.org/2000/svg" width="32" height="32" viewBox="0 0 32 32">
<title>alarm-clock</title>
<path d="M22.009 16.042h-3.93c-0.206-0.771-0.801-1.366-1.557-1.569l-0.015-0.004v-5.581c0-0.304-0.246-0.55-0.55-0.55s-0.55 0.246-0.55 0.55v0 5.581c-0.957 0.251-1.651 1.108-1.651 2.128 0 1.213 0.983 2.197 2.197 2.197 1.019 0 1.876-0.694 2.124-1.635l0.003-0.015h3.93c0.304 0 0.55-0.246 0.55-0.55s-0.246-0.55-0.55-0.55v0zM15.952 17.694c-0.608 0-1.1-0.493-1.1-1.1s0.493-1.1 1.1-1.1c0.608 0 1.1 0.493 1.1 1.1v0c-0.001 0.607-0.493 1.1-1.1 1.1h-0z"></path>
<path d="M27.575 5.373l2.252 2.254c0.1 0.1 0.237 0.161 0.389 0.161s0.29-0.062 0.389-0.161v0c0.809-0.809 1.309-1.926 1.309-3.16 0-2.469-2.001-4.47-4.47-4.47-1.234 0-2.352 0.5-3.16 1.309v0c-0.1 0.1-0.161 0.237-0.161 0.389s0.062 0.29 0.161 0.389l2.511 2.511-0.935 0.935c-2.613-2.354-6.090-3.794-9.904-3.794s-7.291 1.44-9.917 3.806l0.013-0.012-0.935-0.935 2.508-2.51c0.1-0.1 0.161-0.237 0.161-0.389s-0.062-0.29-0.161-0.389v0c-0.809-0.809-1.926-1.309-3.16-1.309-2.469 0-4.47 2.001-4.47 4.47 0 1.234 0.5 2.352 1.309 3.16v0c0.1 0.1 0.237 0.161 0.389 0.161s0.29-0.062 0.389-0.161v0l2.257-2.255 0.922 0.922c-2.575 2.665-4.162 6.299-4.162 10.304 0 5.426 2.914 10.172 7.262 12.758l0.068 0.038-1.666 1.666c-0.1 0.1-0.161 0.237-0.161 0.389 0 0.304 0.246 0.55 0.55 0.55 0.152 0 0.29-0.062 0.389-0.161l1.898-1.898c1.903 0.953 4.146 1.51 6.519 1.51s4.616-0.558 6.605-1.549l-0.086 0.039 1.898 1.898c0.1 0.1 0.237 0.161 0.389 0.161 0.304 0 0.55-0.246 0.55-0.55 0-0.152-0.062-0.29-0.161-0.389l-1.666-1.666c4.415-2.624 7.327-7.369 7.327-12.794 0-4.006-1.588-7.64-4.168-10.309l0.004 0.004zM29.829 2.085c0.609 0.611 0.986 1.453 0.986 2.384 0 0.736-0.236 1.417-0.635 1.972l0.007-0.010-4.703-4.702c0.544-0.393 1.225-0.628 1.961-0.628 0.93 0 1.772 0.376 2.382 0.985l-0-0zM1.73 6.431c-0.393-0.544-0.629-1.225-0.629-1.96 0-1.861 1.508-3.369 3.369-3.369 0.734 0 1.414 0.235 1.968 0.634l-0.010-0.007zM15.956 30.35c-7.598 0-13.757-6.159-13.757-13.757s6.159-13.757 13.757-13.757c7.598 0 13.757 6.159 13.757 13.757v0c-0.009 7.594-6.163 13.748-13.756 13.757h-0.001z"></path>
<path d="M15.956 5.517c0.304 0 0.55-0.246 0.55-0.55v0-0.547c0-0.304-0.246-0.55-0.55-0.55s-0.55 0.246-0.55 0.55v0 0.55c0.002 0.303 0.247 0.547 0.55 0.547 0 0 0 0 0 0v0z"></path>
<path d="M15.956 27.532c-0.304 0-0.55 0.246-0.55 0.55v0 0.55c0 0.304 0.246 0.55 0.55 0.55s0.55-0.246 0.55-0.55v0-0.55c0-0.304-0.246-0.55-0.55-0.55v0z"></path>
<path d="M27.511 17.077h0.55c0.304 0 0.55-0.246 0.55-0.55s-0.246-0.55-0.55-0.55v0h-0.55c-0.304 0-0.55 0.246-0.55 0.55s0.246 0.55 0.55 0.55v0z"></path>
<path d="M4.4 15.976h-0.55c-0.304 0-0.55 0.246-0.55 0.55s0.246 0.55 0.55 0.55v0h0.55c0.304 0 0.55-0.246 0.55-0.55s-0.246-0.55-0.55-0.55v0z"></path>
<path d="M24.127 7.576l-0.389 0.389c-0.1 0.1-0.161 0.237-0.161 0.389 0 0.304 0.246 0.55 0.55 0.55 0.152 0 0.29-0.062 0.389-0.161l0.389-0.389c0.1-0.1 0.161-0.237 0.161-0.389 0-0.304-0.246-0.55-0.55-0.55-0.152 0-0.29 0.062-0.389 0.161v0z"></path>
<path d="M7.396 24.308l-0.389 0.389c-0.1 0.1-0.161 0.237-0.161 0.389 0 0.304 0.246 0.55 0.55 0.55 0.152 0 0.29-0.062 0.389-0.161l0.389-0.389c0.1-0.1 0.161-0.237 0.161-0.389 0-0.304-0.246-0.55-0.55-0.55-0.152 0-0.29 0.062-0.389 0.161v0z"></path>
<path d="M24.517 24.308c-0.1-0.1-0.237-0.161-0.389-0.161-0.304 0-0.55 0.246-0.55 0.55 0 0.152 0.062 0.29 0.161 0.389v0l0.389 0.389c0.1 0.1 0.237 0.161 0.389 0.161 0.304 0 0.55-0.246 0.55-0.55 0-0.152-0.062-0.29-0.161-0.389v0z"></path>
<path d="M7.785 7.576c-0.1-0.1-0.237-0.161-0.389-0.161-0.304 0-0.55 0.246-0.55 0.55 0 0.152 0.062 0.29 0.161 0.389l0.389 0.389c0.1 0.1 0.237 0.161 0.389 0.161 0.304 0 0.55-0.246 0.55-0.55 0-0.152-0.062-0.29-0.161-0.389v0z"></path>
</svg>
