<!-- Generated by IcoMoon.io -->
<svg version="1.1" xmlns="http://www.w3.org/2000/svg" width="33" height="32" viewBox="0 0 33 32">
<title>cans</title>
<path d="M32.676 13.333v-2.133c0-0.004 0-0.008 0-0.013 0-0.283-0.226-0.513-0.507-0.521h-2.206l-0.846-2.074c-0.319-0.759-0.504-1.642-0.504-2.568 0-0.004 0-0.008 0-0.012v0.001-1.48c0.003-0.063 0.005-0.136 0.005-0.209 0-2.387-1.935-4.322-4.322-4.322s-4.322 1.935-4.322 4.322c0 0.074 0.002 0.147 0.005 0.22l-0-0.010c-0 0.015-0 0.032-0 0.049 0 2.068 0.809 3.947 2.128 5.339l-0.003-0.003 0.713 0.749h-6.902c-0.282 0.007-0.508 0.238-0.508 0.521 0 0.004 0 0.009 0 0.013v-0.001 2.133c-0 0.004-0 0.008-0 0.013 0 0.283 0.226 0.513 0.507 0.521h15.239v14.933h-6.095v1.067h6.603v1.066h-6.603v1.067h7.111c0.282-0.007 0.508-0.238 0.508-0.521 0-0.004-0-0.009-0-0.013v0.001-2.134c0-0.004 0-0.008 0-0.013 0-0.283-0.226-0.513-0.507-0.521h-0.001v-14.933c0.282-0.007 0.508-0.238 0.508-0.521 0-0.004-0-0.009-0-0.013v0.001zM22.82 9.164c-1.131-1.193-1.827-2.809-1.827-4.588 0-0.015 0-0.030 0-0.045v0.002c-0.003-0.050-0.004-0.108-0.004-0.167 0-1.826 1.48-3.306 3.306-3.306s3.306 1.48 3.306 3.306c0 0.059-0.002 0.117-0.005 0.175l0-0.008v1.48c0 0.004 0 0.008 0 0.012 0 1.077 0.216 2.104 0.606 3.039l-0.019-0.052 0.677 1.654h-4.607zM16.421 11.734h15.238v1.067h-15.238z"></path>
<path d="M23.365 21.333c0-0.28-0.227-0.508-0.508-0.508v0h-7.115c1.241-0.936 2.035-2.407 2.035-4.064v-0c0-0.561-0.454-1.015-1.015-1.015v0h-5.588c-0.561 0-1.015 0.454-1.015 1.015v0c-0.003 2.243-1.82 4.061-4.063 4.064h-5.589c-0.28 0-0.508 0.227-0.508 0.508v0 2.030c0 0.28 0.227 0.508 0.508 0.508h0.508v7.619c0 0.28 0.227 0.508 0.508 0.508h20.319c0.28 0 0.508-0.227 0.508-0.508v0-7.617h0.508c0.28 0 0.508-0.227 0.508-0.508v0zM11.175 16.761h5.587c-0.003 2.243-1.82 4.061-4.063 4.064h-3.559c1.241-0.936 2.035-2.407 2.035-4.064v-0zM1.015 21.841h13.715v1.015h-13.715zM2.030 29.969h12.7v1.015h-12.7zM21.332 30.984h-5.586v-1.015h5.587zM21.332 28.954h-19.302v-5.079h19.303zM22.347 22.858h-6.601v-1.015h6.604z"></path>
<path d="M16.685 25.046h1.128v3.384h-1.128v-3.384z"></path>
</svg>
