<!-- Generated by IcoMoon.io -->
<svg version="1.1" xmlns="http://www.w3.org/2000/svg" width="32" height="32" viewBox="0 0 32 32">
<title>community</title>
<path d="M13.289 6.799c0.2 0.612 0.62 1.125 1.166 1.446v0.279l-2.067 0.809c-0.191 0.069-1.808 0.714-1.808 2.771v1.8c0 0.279 0.226 0.506 0.505 0.506h1.284c0.279 0 0.505-0.226 0.505-0.505s-0.226-0.505-0.505-0.505h-0.778v-1.295c0-1.398 1.093-1.803 1.135-1.819 0.008-0.003 0.016-0.005 0.023-0.008l1.893-0.741 1.005 0.979c0.094 0.092 0.221 0.143 0.353 0.143 0.003 0 0.005-0 0.008-0 0.134-0.002 0.262-0.058 0.356-0.155l0.949-0.985 1.888 0.757c0.009 0.004 0.018 0.007 0.027 0.010 0.011 0.004 1.135 0.398 1.135 1.818v1.295h-6.389c-0.279 0-0.505 0.226-0.505 0.505s0.226 0.505 0.505 0.505h6.894c0.279 0 0.505-0.23 0.505-0.509v-1.797c0-2.048-1.605-2.697-1.806-2.77l-2.013-0.807v-0.282c0.546-0.321 0.967-0.834 1.167-1.447 0.731-0.059 1.309-0.671 1.309-1.418 0-0.444-0.204-0.84-0.523-1.102v-0.891c0-1.868-1.52-3.388-3.388-3.388h-0.24c-1.868 0-3.388 1.52-3.388 3.388v0.887c-0.322 0.261-0.529 0.66-0.529 1.106 0 0.752 0.586 1.368 1.325 1.418zM18.852 5.084c0.018 0.006 0.037 0.010 0.056 0.014 0.070 0.074 0.113 0.173 0.113 0.283 0 0.136-0.067 0.257-0.169 0.333v-0.629zM16.545 8.859l-0.556 0.578-0.523-0.509v-0.342c0.102 0.012 0.205 0.019 0.311 0.019h0.458c0.105 0 0.209-0.007 0.311-0.019v0.274zM17.841 5.988c0 0.886-0.721 1.606-1.606 1.606h-0.458c-0.886 0-1.607-0.721-1.607-1.606v-1.325c0.654-0.071 1.81-0.301 2.702-1.045 0.2 0.342 0.509 0.712 0.969 0.928v1.442zM13.503 3.388c0-1.311 1.066-2.377 2.377-2.377h0.24c1.311 0 2.377 1.066 2.377 2.377v0.319c-0.009-0.003-0.017-0.005-0.026-0.007-0.004-0.001-0.009-0.003-0.013-0.004-0.698-0.159-0.927-1.092-0.929-1.099-0.044-0.194-0.197-0.344-0.392-0.383s-0.394 0.038-0.511 0.199c-0.909 1.256-2.936 1.271-2.961 1.271-0.001 0-0.001 0-0.002 0-0.017 0-0.035 0.001-0.052 0.003-0.005 0.001-0.009 0.002-0.013 0.002-0.012 0.002-0.025 0.003-0.037 0.006-0.006 0.001-0.012 0.003-0.019 0.005-0.010 0.002-0.020 0.005-0.030 0.008-0.004 0.001-0.008 0.003-0.012 0.004v-0.323zM13.076 5.11c0.029-0.004 0.056-0.011 0.083-0.020v0.636c-0.112-0.074-0.185-0.201-0.185-0.344 0-0.104 0.039-0.198 0.102-0.271z"></path>
<path d="M20.649 1.753c3.266 1.070 6.091 3.26 7.954 6.165 0.097 0.15 0.259 0.233 0.426 0.233 0.093 0 0.188-0.026 0.272-0.080 0.235-0.151 0.303-0.463 0.153-0.698-1.989-3.1-5.004-5.437-8.49-6.58-0.266-0.087-0.551 0.058-0.637 0.323s0.058 0.551 0.323 0.638z"></path>
<path d="M2.653 8.071c0.084 0.054 0.179 0.080 0.272 0.080 0.166 0 0.329-0.082 0.426-0.233 1.885-2.939 4.747-5.14 8.058-6.199 0.266-0.085 0.412-0.369 0.327-0.635s-0.37-0.412-0.635-0.327c-3.535 1.13-6.589 3.479-8.601 6.616-0.151 0.235-0.082 0.548 0.153 0.698z"></path>
<path d="M9.725 29.625c-2.613-1.201-4.817-3.119-6.373-5.545-0.151-0.235-0.463-0.303-0.698-0.153s-0.303 0.463-0.153 0.698c1.661 2.59 4.013 4.636 6.802 5.918 0.068 0.031 0.14 0.046 0.211 0.046 0.191 0 0.374-0.109 0.459-0.294 0.117-0.254 0.005-0.554-0.248-0.67z"></path>
<path d="M29.302 23.928c-0.235-0.151-0.547-0.082-0.698 0.153-1.534 2.392-3.702 4.293-6.27 5.497-0.253 0.119-0.361 0.419-0.243 0.672 0.086 0.183 0.268 0.291 0.458 0.291 0.072 0 0.145-0.015 0.214-0.048 2.74-1.285 5.054-3.314 6.691-5.866 0.151-0.235 0.082-0.547-0.153-0.698z"></path>
<path d="M10.795 22.695v-1.797c0-2.048-1.605-2.697-1.806-2.77l-2.013-0.807v-0.282c0.546-0.321 0.967-0.834 1.167-1.447 0.731-0.059 1.309-0.671 1.309-1.418 0-0.444-0.204-0.84-0.523-1.102v-0.891c0-1.868-1.52-3.388-3.388-3.388h-0.24c-1.868 0-3.388 1.52-3.388 3.388v0.887c-0.322 0.261-0.529 0.66-0.529 1.106 0 0.752 0.586 1.368 1.325 1.418 0.2 0.612 0.62 1.125 1.166 1.446v0.279l-2.067 0.809c-0.191 0.069-1.808 0.715-1.808 2.771v1.8c0 0.279 0.226 0.506 0.505 0.506h1.284c0.279 0 0.505-0.226 0.505-0.505s-0.226-0.505-0.505-0.505h-0.778v-1.295c0-1.398 1.093-1.803 1.135-1.818 0.008-0.003 0.016-0.005 0.023-0.009l1.893-0.741 1.005 0.979c0.094 0.092 0.221 0.143 0.352 0.143 0.003 0 0.005 0 0.008-0 0.134-0.002 0.263-0.058 0.356-0.155l0.949-0.985 1.888 0.757c0.009 0.004 0.014 0.006 0.023 0.009 0.046 0.017 1.139 0.422 1.139 1.82v1.295h-6.389c-0.279 0-0.505 0.226-0.505 0.505s0.226 0.505 0.505 0.505h6.894c0.279 0 0.505-0.23 0.505-0.509zM8.272 13.878c0.018 0.006 0.037 0.010 0.056 0.014 0.070 0.074 0.113 0.173 0.113 0.283 0 0.136-0.067 0.257-0.169 0.333v-0.629zM2.58 14.519c-0.112-0.074-0.185-0.201-0.185-0.344 0-0.104 0.039-0.198 0.102-0.271 0.029-0.005 0.056-0.011 0.083-0.020v0.636zM3.086 12.478c-0.001 0-0.001 0-0.002 0-0.017 0-0.035 0.001-0.052 0.003-0.005 0.001-0.009 0.002-0.013 0.002-0.012 0.002-0.025 0.003-0.037 0.006-0.006 0.001-0.012 0.003-0.019 0.005-0.010 0.002-0.020 0.005-0.030 0.008-0.004 0.001-0.008 0.003-0.012 0.004v-0.323c0-1.311 1.066-2.377 2.377-2.377h0.24c1.311 0 2.377 1.066 2.377 2.377v0.319c-0.009-0.003-0.017-0.005-0.026-0.007-0.004-0.001-0.008-0.003-0.013-0.004-0.698-0.159-0.927-1.092-0.929-1.099-0.044-0.194-0.197-0.344-0.391-0.383s-0.394 0.038-0.511 0.199c-0.909 1.256-2.936 1.271-2.962 1.271zM5.965 17.654l-0.556 0.578-0.523-0.509v-0.342c0.102 0.012 0.205 0.019 0.311 0.019h0.458c0.105 0 0.209-0.007 0.311-0.019v0.274zM5.655 16.388h-0.458c-0.886 0-1.607-0.721-1.607-1.607v-1.325h0c0.654-0.071 1.81-0.301 2.702-1.045 0.2 0.342 0.509 0.712 0.969 0.928v1.442c-0 0.886-0.721 1.606-1.607 1.606z"></path>
<path d="M30.193 18.129l-2.013-0.807v-0.282c0.546-0.321 0.967-0.834 1.167-1.447 0.731-0.059 1.309-0.671 1.309-1.418 0-0.444-0.204-0.84-0.523-1.102v-0.891c0-1.868-1.52-3.388-3.388-3.388h-0.24c-1.868 0-3.388 1.52-3.388 3.388v0.887c-0.322 0.261-0.529 0.66-0.529 1.106 0 0.752 0.586 1.368 1.325 1.418 0.2 0.612 0.62 1.125 1.166 1.446v0.279l-2.067 0.809c-0.191 0.069-1.808 0.715-1.808 2.771v1.8c0 0.279 0.226 0.506 0.505 0.506h1.284c0.279 0 0.505-0.226 0.505-0.505s-0.226-0.505-0.505-0.505h-0.779v-1.295c0-1.398 1.093-1.803 1.135-1.818 0.008-0.003 0.016-0.005 0.023-0.009l1.893-0.741 1.005 0.979c0.094 0.092 0.221 0.143 0.352 0.143 0.003 0 0.005 0 0.008-0 0.134-0.002 0.263-0.058 0.356-0.155l0.949-0.985 1.888 0.757c0.009 0.004 0.014 0.006 0.023 0.009 0.047 0.017 1.14 0.422 1.14 1.82v1.295h-6.389c-0.279 0-0.505 0.226-0.505 0.505s0.226 0.505 0.505 0.505h6.894c0.279 0 0.505-0.23 0.505-0.509v-1.797c-0-2.048-1.605-2.697-1.806-2.77zM29.476 13.878c0.018 0.006 0.037 0.010 0.056 0.014 0.070 0.074 0.113 0.173 0.113 0.283 0 0.136-0.067 0.257-0.169 0.333v-0.629zM23.784 14.519c-0.112-0.074-0.185-0.201-0.185-0.344 0-0.104 0.039-0.198 0.102-0.271 0.029-0.005 0.056-0.011 0.083-0.020v0.636zM24.291 12.478c-0.001 0-0.001 0-0.002 0-0.017 0-0.035 0.001-0.052 0.003-0.005 0.001-0.009 0.002-0.013 0.002-0.012 0.002-0.025 0.003-0.037 0.006-0.006 0.001-0.012 0.003-0.019 0.005-0.010 0.002-0.020 0.005-0.030 0.008-0.004 0.001-0.008 0.003-0.012 0.004v-0.323c0-1.311 1.066-2.377 2.377-2.377h0.24c1.311 0 2.377 1.066 2.377 2.377v0.319c-0.009-0.003-0.017-0.005-0.026-0.007-0.004-0.001-0.009-0.003-0.013-0.004-0.698-0.159-0.927-1.092-0.929-1.099-0.044-0.194-0.197-0.344-0.392-0.383s-0.394 0.038-0.511 0.199c-0.909 1.256-2.936 1.271-2.962 1.271zM27.17 17.654l-0.556 0.578-0.523-0.509v-0.342c0.102 0.012 0.205 0.019 0.311 0.019h0.458c0.105 0 0.209-0.007 0.311-0.019v0.274zM26.859 16.388h-0.458c-0.886 0-1.607-0.721-1.607-1.607v-1.325h0c0.654-0.071 1.811-0.302 2.702-1.045 0.2 0.342 0.509 0.712 0.969 0.928v1.442c0 0.886-0.721 1.607-1.607 1.607z"></path>
<path d="M19.569 26.925l-2.013-0.807v-0.282c0.546-0.321 0.967-0.834 1.167-1.447 0.731-0.059 1.309-0.672 1.309-1.418 0-0.444-0.204-0.84-0.523-1.102v-0.891c0-1.868-1.52-3.388-3.388-3.388h-0.24c-1.868 0-3.388 1.52-3.388 3.388v0.887c-0.322 0.261-0.529 0.66-0.529 1.106 0 0.752 0.586 1.368 1.325 1.419 0.2 0.612 0.62 1.125 1.166 1.446v0.279l-2.067 0.809c-0.191 0.069-1.808 0.715-1.808 2.771v1.8c0 0.279 0.226 0.506 0.505 0.506h1.284c0.279 0 0.505-0.226 0.505-0.505s-0.226-0.505-0.505-0.505h-0.778v-1.295c0-1.398 1.093-1.803 1.135-1.818 0.008-0.003 0.016-0.005 0.023-0.009l1.893-0.741 1.005 0.979c0.094 0.092 0.221 0.143 0.352 0.143 0.003 0 0.005 0 0.008-0 0.134-0.002 0.262-0.058 0.356-0.155l0.949-0.985 1.888 0.757c0.009 0.004 0.014 0.006 0.023 0.009 0.047 0.017 1.139 0.422 1.139 1.82v1.295h-6.389c-0.279 0-0.505 0.226-0.505 0.505s0.226 0.505 0.505 0.505h6.894c0.279 0 0.505-0.23 0.505-0.509v-1.797c0-2.048-1.605-2.697-1.806-2.77zM18.852 22.674c0.018 0.006 0.037 0.010 0.056 0.014 0.070 0.074 0.113 0.173 0.113 0.283 0 0.137-0.067 0.257-0.169 0.333v-0.629zM13.159 23.315c-0.112-0.074-0.185-0.201-0.185-0.344 0-0.104 0.039-0.198 0.102-0.271 0.029-0.005 0.056-0.011 0.083-0.020v0.636zM13.666 21.274c-0.001 0-0.001 0-0.002 0-0.017 0-0.035 0.001-0.052 0.003-0.005 0.001-0.010 0.002-0.016 0.002-0.011 0.002-0.023 0.003-0.034 0.005-0.008 0.002-0.016 0.004-0.023 0.006s-0.017 0.004-0.025 0.006c-0.004 0.001-0.008 0.003-0.012 0.004v-0.323c0-1.311 1.067-2.377 2.377-2.377h0.24c1.311 0 2.377 1.066 2.377 2.377v0.319c-0.008-0.003-0.017-0.004-0.025-0.007-0.005-0.001-0.009-0.003-0.014-0.004-0.698-0.159-0.927-1.092-0.929-1.099-0.044-0.194-0.197-0.344-0.392-0.383s-0.394 0.038-0.511 0.199c-0.909 1.256-2.936 1.271-2.962 1.271zM16.545 26.449l-0.556 0.578-0.523-0.509v-0.342c0.102 0.012 0.205 0.019 0.311 0.019h0.458c0.105 0 0.209-0.007 0.311-0.019v0.274zM16.235 25.184h-0.458c-0.886 0-1.607-0.721-1.607-1.607v-1.325h0c0.654-0.071 1.81-0.301 2.702-1.045 0.2 0.342 0.509 0.712 0.969 0.928v1.442c-0 0.886-0.721 1.607-1.607 1.607z"></path>
</svg>
