<!-- Generated by IcoMoon.io -->
<svg version="1.1" xmlns="http://www.w3.org/2000/svg" width="34" height="32" viewBox="0 0 34 32">
<title>contact</title>
<path d="M32.255 0h-23.53c-0.791 0.001-1.431 0.642-1.432 1.432v6.49l-1.076-1.614c-0.302-0.451-0.81-0.745-1.387-0.745-0.318 0-0.614 0.089-0.867 0.243l0.007-0.004-2.212 1.331c-0.717 0.425-1.249 1.1-1.48 1.901l-0.006 0.023c-0.81 2.941-0.206 8.007 7.227 15.444 5.914 5.907 10.321 7.498 13.361 7.498 0.010 0 0.023 0 0.035 0 0.729 0 1.434-0.099 2.104-0.285l-0.055 0.013c0.824-0.236 1.498-0.766 1.917-1.467l0.008-0.015 1.329-2.216c0.149-0.245 0.238-0.541 0.238-0.858 0-0.576-0.293-1.084-0.737-1.382l-0.006-0.004-5.3-3.533c-0.26-0.173-0.579-0.277-0.922-0.277-0.533 0-1.008 0.249-1.315 0.637l-0.003 0.003-1.541 1.984c-0.099 0.13-0.254 0.213-0.428 0.213-0.095 0-0.185-0.025-0.263-0.069l0.003 0.001-0.294-0.162c-0.966-0.527-2.169-1.183-4.599-3.612-0.263-0.263-0.501-0.509-0.724-0.744h21.949c0 0 0.001 0 0.001 0 0.788 0 1.428-0.638 1.431-1.425v-17.371c-0.001-0.791-0.642-1.432-1.434-1.432 0 0 0 0 0 0v0zM15.091 25.571l0.286 0.157c0.232 0.132 0.511 0.21 0.807 0.21 0.533 0 1.007-0.252 1.31-0.644l0.003-0.004 1.541-1.984c0.101-0.128 0.256-0.209 0.429-0.209 0.112 0 0.216 0.034 0.303 0.091l-0.002-0.001 5.3 3.533c0.146 0.099 0.241 0.264 0.241 0.451 0 0.103-0.029 0.199-0.078 0.281l0.001-0.002-1.326 2.216c-0.278 0.471-0.719 0.82-1.244 0.973l-0.015 0.004c-2.655 0.73-7.3 0.113-14.352-6.94s-7.666-11.697-6.938-14.349c0.157-0.54 0.506-0.98 0.967-1.253l0.010-0.005 2.216-1.33c0.080-0.048 0.176-0.077 0.279-0.077 0.187 0 0.352 0.095 0.45 0.239l0.001 0.002 3.535 5.301c0.057 0.085 0.090 0.189 0.090 0.301 0 0.174-0.081 0.329-0.208 0.428l-0.001 0.001-1.984 1.541c-0.395 0.305-0.647 0.779-0.647 1.312 0 0.296 0.078 0.575 0.214 0.815l-0.004-0.008 0.157 0.285c0.562 1.030 1.259 2.311 3.804 4.855s3.825 3.246 4.855 3.808zM32.563 18.802c-0.002 0.168-0.138 0.303-0.306 0.303-0.001 0-0.002 0-0.003 0h-22.961c-0.701-0.797-1.324-1.693-1.839-2.656l-0.037-0.076-0.162-0.295c-0.042-0.075-0.067-0.164-0.067-0.259 0-0.174 0.082-0.328 0.21-0.426l0.001-0.001 1.984-1.541c0.391-0.31 0.64-0.784 0.64-1.317 0-0.344-0.103-0.663-0.281-0.929l0.004 0.006-1.334-2.002v-8.176c0-0.001-0-0.002-0-0.003 0-0.169 0.137-0.306 0.306-0.306 0.001 0 0.002 0 0.004 0h23.53c0.001 0 0.002-0 0.003-0 0.169 0 0.306 0.137 0.306 0.306 0 0.001 0 0.002-0 0.004v-0 17.371z"></path>
<path d="M30.32 2.6l-9.383 7.118c-0.123 0.090-0.278 0.145-0.445 0.145s-0.322-0.054-0.447-0.146l0.002 0.001-9.383-7.118c-0.093-0.071-0.211-0.114-0.339-0.114-0.31 0-0.562 0.252-0.562 0.562 0 0.182 0.087 0.344 0.221 0.447l0.001 0.001 9.383 7.117c0.31 0.231 0.7 0.37 1.123 0.37s0.813-0.139 1.128-0.374l-0.005 0.004 9.381-7.117c0.136-0.104 0.223-0.266 0.223-0.448 0-0.31-0.251-0.562-0.562-0.562-0.128 0-0.246 0.043-0.34 0.115l0.001-0.001z"></path>
<path d="M15.697 10.66l-5.753 6.16c-0.093 0.1-0.151 0.235-0.151 0.383 0 0.31 0.251 0.562 0.562 0.562 0.162 0 0.308-0.069 0.411-0.178l0-0 5.753-6.166c0.081-0.097 0.13-0.222 0.13-0.359 0-0.31-0.251-0.562-0.562-0.562-0.151 0-0.289 0.060-0.39 0.157l0-0z"></path>
<path d="M25.318 10.66c-0.103-0.11-0.249-0.179-0.411-0.179-0.31 0-0.562 0.251-0.562 0.562 0 0.148 0.057 0.283 0.151 0.383l-0-0 5.751 6.16c0.103 0.11 0.249 0.179 0.411 0.179 0.31 0 0.562-0.251 0.562-0.562 0-0.148-0.057-0.283-0.151-0.383l0 0z"></path>
</svg>
