<!-- Generated by IcoMoon.io -->
<svg version="1.1" xmlns="http://www.w3.org/2000/svg" width="42" height="32" viewBox="0 0 42 32">
<title>dinner-pan</title>
<path d="M40.986 28.051h-1.107c-0.344-10.006-8.357-18.032-18.326-18.396l-0.034-0.001 1.947-1.948c0.395-0.398 0.64-0.946 0.64-1.551 0-1.215-0.985-2.199-2.199-2.199-0.399 0-0.772 0.106-1.095 0.291l0.011-0.006c-0.313-0.182-0.69-0.29-1.091-0.29-1.214 0-2.198 0.984-2.198 2.198 0 0.608 0.247 1.158 0.646 1.556l1.948 1.948c-3.050 0.108-5.888 0.921-8.385 2.279l0.1-0.050c-0.208 0.113-0.348 0.33-0.348 0.58 0 0.363 0.295 0.658 0.658 0.658 0.114 0 0.221-0.029 0.314-0.080l-0.003 0.002c1.142-0.626 2.467-1.154 3.858-1.517l0.123-0.027c1.282-0.337 2.755-0.535 4.272-0.543l0.005-0c0.031 0.006 0.067 0.009 0.103 0.009h0c0.038-0 0.074-0.004 0.11-0.010l-0.004 0.001c9.532 0.047 17.283 7.609 17.632 17.062l0.001 0.032h-35.481c0.216-5.601 2.994-10.512 7.188-13.619l0.048-0.034c0.164-0.121 0.269-0.313 0.269-0.53 0-0.363-0.294-0.657-0.657-0.657-0 0-0 0-0 0v0c-0 0-0.001 0-0.002 0-0.146 0-0.281 0.048-0.389 0.13l0.002-0.001c-2.358 1.746-4.266 3.96-5.614 6.517l-0.050 0.105c-1.241 2.349-2.010 5.119-2.109 8.059l-0.001 0.031h-1.11c-0.363 0-0.657 0.294-0.657 0.657v0c0.002 1.815 1.473 3.286 3.288 3.288h35.068c1.815-0.002 3.286-1.473 3.288-3.288v-0c0-0.363-0.294-0.657-0.657-0.657v0zM20.822 8.497l-1.714-1.714c-0.147-0.157-0.237-0.369-0.237-0.602 0-0.488 0.396-0.883 0.884-0.883 0.233 0 0.445 0.090 0.603 0.238l-0-0c0.119 0.119 0.283 0.192 0.465 0.192s0.346-0.074 0.465-0.192v0c0.162-0.173 0.391-0.281 0.646-0.281 0.488 0 0.884 0.396 0.884 0.883 0 0.255-0.108 0.485-0.281 0.646l-0 0zM38.355 30.685h-35.067c-0.853-0.001-1.579-0.543-1.855-1.301l-0.004-0.014h38.785c-0.28 0.772-1.006 1.313-1.859 1.315h-0z"></path>
<path d="M3.755 6.329c-2.189-2.189-0.031-5.154 0.062-5.279 0.082-0.108 0.131-0.246 0.131-0.394 0-0.363-0.294-0.658-0.658-0.658-0.215 0-0.405 0.103-0.525 0.262l-0.001 0.002c-0.47 0.659-0.845 1.426-1.081 2.251l-0.013 0.053c-0.141 0.422-0.222 0.908-0.222 1.412 0 1.285 0.527 2.446 1.377 3.28l0.001 0.001c2.189 2.189 0.031 5.154-0.061 5.277-0.082 0.109-0.132 0.246-0.132 0.395 0 0.363 0.294 0.658 0.658 0.658 0.214 0 0.405-0.103 0.525-0.261l0.001-0.002c0.47-0.659 0.845-1.426 1.081-2.251l0.013-0.053c0.141-0.422 0.223-0.908 0.223-1.412 0-1.285-0.527-2.446-1.377-3.28l-0.001-0.001z"></path>
<path d="M10.766 3.699c-0.356-0.296-0.581-0.738-0.581-1.233 0-0.168 0.026-0.33 0.074-0.482l-0.003 0.011c0.114-0.339 0.289-0.63 0.512-0.876l-0.002 0.002c0.114-0.118 0.184-0.279 0.184-0.456 0-0.363-0.294-0.657-0.657-0.657-0.177 0-0.338 0.070-0.456 0.184l0-0c-0.355 0.375-0.634 0.826-0.808 1.326l-0.008 0.026c-0.094 0.274-0.149 0.59-0.149 0.919 0 0.858 0.372 1.63 0.963 2.163l0.003 0.002c0.357 0.298 0.582 0.743 0.582 1.24 0 0.17-0.026 0.333-0.075 0.487l0.003-0.011c-0.115 0.344-0.291 0.641-0.517 0.892l0.002-0.002c-0.116 0.119-0.188 0.281-0.188 0.461 0 0.364 0.295 0.659 0.659 0.659 0.185 0 0.351-0.076 0.471-0.198l0-0c0.354-0.379 0.632-0.833 0.806-1.337l0.008-0.026c0.093-0.274 0.147-0.589 0.147-0.917 0-0.862-0.373-1.638-0.967-2.173l-0.003-0.002z"></path>
<path d="M38.821 7.26c0.851-0.834 1.378-1.996 1.378-3.281 0-0.505-0.081-0.99-0.232-1.445l0.009 0.032c-0.25-0.878-0.624-1.645-1.11-2.327l0.016 0.023c-0.121-0.161-0.312-0.264-0.527-0.264-0.363 0-0.658 0.294-0.658 0.658 0 0.149 0.049 0.286 0.132 0.396l-0.001-0.002c0.093 0.125 2.251 3.090 0.062 5.279-0.851 0.834-1.378 1.996-1.378 3.281 0 0.505 0.081 0.991 0.232 1.445l-0.009-0.032c0.25 0.878 0.624 1.645 1.11 2.327l-0.016-0.023c0.121 0.161 0.312 0.264 0.527 0.264 0.363 0 0.658-0.294 0.658-0.658 0-0.149-0.049-0.286-0.132-0.396l0.001 0.002c-0.094-0.125-2.25-3.095-0.062-5.279z"></path>
<path d="M31.297 6.346c-0.046-0.142-0.072-0.306-0.072-0.476 0-0.497 0.225-0.941 0.578-1.237l0.003-0.002c0.594-0.535 0.965-1.307 0.965-2.165 0-0.329-0.054-0.645-0.155-0.939l0.006 0.020c-0.183-0.526-0.461-0.977-0.818-1.354l0.002 0.002c-0.119-0.12-0.284-0.194-0.466-0.194-0.363 0-0.658 0.294-0.658 0.658 0 0.181 0.073 0.345 0.191 0.464l-0-0c0.223 0.244 0.398 0.537 0.507 0.859l0.005 0.017c0.045 0.141 0.071 0.302 0.071 0.47 0 0.495-0.225 0.938-0.578 1.231l-0.003 0.002c-0.594 0.538-0.965 1.311-0.965 2.172 0 0.33 0.055 0.646 0.155 0.942l-0.006-0.021c0.182 0.53 0.46 0.984 0.816 1.365l-0.002-0.002c0.119 0.12 0.284 0.195 0.466 0.195 0.179 0 0.341-0.072 0.459-0.188l-0 0c0.122-0.12 0.197-0.286 0.197-0.471 0-0.178-0.070-0.339-0.185-0.458l0 0c-0.224-0.249-0.4-0.546-0.51-0.873l-0.005-0.018z"></path>
</svg>
