<!-- Generated by IcoMoon.io -->
<svg version="1.1" xmlns="http://www.w3.org/2000/svg" width="32" height="32" viewBox="0 0 32 32">
<title>no-soy</title>
<path d="M16 0c-8.837 0-16 7.163-16 16s7.163 16 16 16c8.837 0 16-7.163 16-16v0c0-8.837-7.163-16-16-16v0zM16 30.933c-8.247 0-14.933-6.686-14.933-14.933s6.686-14.933 14.933-14.933c8.247 0 14.933 6.686 14.933 14.933v0c0 8.247-6.686 14.933-14.933 14.933v0z"></path>
<path d="M16.919 2.167l-0.021-0.044c-0.16-0.342-0.501-0.575-0.896-0.575s-0.737 0.233-0.894 0.569l-0.003 0.006-0.024 0.053c-3.088 0.197-5.865 1.391-8.046 3.26l0.018-0.015c-0.006 0.005-0.009 0.013-0.014 0.018s-0.013 0.007-0.018 0.013c-0.016 0.020-0.031 0.043-0.044 0.066l-0.001 0.003c-0.021 0.026-0.041 0.056-0.058 0.087l-0.001 0.003c-0.011 0.028-0.021 0.060-0.027 0.094l-0 0.003c-0.009 0.029-0.016 0.062-0.019 0.097l-0 0.003c0 0.035 0.004 0.070 0.011 0.103l-0.001-0.003c0.003 0.037 0.010 0.071 0.021 0.104l-0.001-0.004c-0.006-0.016 0.024 0.038 0.054 0.093l0.036 0.073c0.005 0.006 0.013 0.007 0.018 0.013s0.007 0.013 0.013 0.019l3.146 3.147c-0.021 0.194-0.032 0.419-0.032 0.647 0 0.315 0.023 0.625 0.066 0.928l-0.004-0.035-3.937-3.937c-0.004-0.004-0.012-0.006-0.016-0.011s-0.007-0.011-0.013-0.016c-0.021-0.013-0.044-0.027-0.069-0.038l-0.003-0.001c-0.026-0.019-0.055-0.037-0.086-0.051l-0.003-0.001c-0.059-0.016-0.127-0.026-0.196-0.027h-0.001c-0.039 0.003-0.076 0.011-0.11 0.022l0.003-0.001c-0.034 0.006-0.064 0.014-0.093 0.025l0.003-0.001c-0.034 0.019-0.063 0.039-0.090 0.062l0.001-0.001c-0.026 0.014-0.049 0.030-0.070 0.046l0.001-0.001c-0.004 0.004-0.006 0.012-0.011 0.016s-0.011 0.007-0.016 0.013c-2.045 2.399-3.289 5.535-3.289 8.961 0 7.651 6.203 13.854 13.854 13.854 3.425 0 6.56-1.243 8.979-3.303l-0.020 0.016c0.005 0 0.007-0.011 0.013-0.016s0.011-0.006 0.016-0.011c0.017-0.019 0.032-0.039 0.046-0.061l0.001-0.002c0.022-0.026 0.042-0.056 0.059-0.087l0.001-0.003c0.017-0.054 0.033-0.12 0.044-0.188l0.001-0.009c-0.001-0.036-0.006-0.071-0.013-0.104l0.001 0.004c-0.003-0.037-0.010-0.071-0.020-0.103l0.001 0.004c-0.017-0.034-0.035-0.064-0.055-0.091l0.001 0.002c-0.013-0.029-0.027-0.053-0.043-0.076l0.001 0.002c-0.004-0.005-0.011-0.007-0.015-0.013s-0.006-0.012-0.011-0.016l-3.247-3.25c0.047-0.289 0.073-0.622 0.073-0.961 0-0.175-0.007-0.349-0.021-0.52l0.001 0.023 3.953 3.953c0.005 0.005 0.013 0.007 0.019 0.013s0.008 0.013 0.014 0.018c0.028 0.021 0.060 0.040 0.095 0.055l0.003 0.001c0.015 0.011 0.033 0.022 0.052 0.031l0.002 0.001c0.056 0.023 0.121 0.037 0.19 0.038h0c0.076-0.001 0.148-0.018 0.213-0.047l-0.003 0.001c0.023-0.013 0.043-0.027 0.062-0.041l-0.001 0.001c0.041-0.020 0.076-0.044 0.107-0.071l-0.001 0.001c0.006-0.006 0.007-0.013 0.013-0.019s0.013-0.007 0.017-0.013c2.046-2.4 3.291-5.538 3.291-8.966 0-7.336-5.7-13.341-12.913-13.827l-0.042-0.002zM17.841 7.898c0 0.090-0.013 0.174-0.019 0.261-0.709 0.436-1.29 1.012-1.721 1.693l-0.013 0.022c-0.033 0.057-0.057 0.117-0.090 0.175-0.031-0.058-0.054-0.118-0.090-0.179-0.443-0.703-1.025-1.278-1.711-1.702l-0.023-0.013c-0.006-0.090-0.018-0.179-0.018-0.26 0-0.826 0.686-2.755 1.841-5.18 1.154 2.42 1.84 4.354 1.84 5.18zM20.302 23.598c-0.654 0.929-1.576 1.631-2.651 1.999l-0.038 0.011c-0.089 0.037-0.192 0.059-0.3 0.059-0.138 0-0.268-0.035-0.382-0.098l0.004 0.002c-0.168-0.092-0.289-0.253-0.325-0.444l-0.001-0.004c-0.033-0.186-0.059-0.392-0.079-0.606 0.012-0.152 0.019-0.329 0.019-0.507s-0.007-0.355-0.021-0.53l0.001 0.023c0.045-0.573 0.214-1.098 0.481-1.56l-0.009 0.018c0.852-1.129 2.066-1.945 3.468-2.277l0.041-0.008c0.178 0.506 0.281 1.088 0.281 1.695 0 0.809-0.183 1.575-0.509 2.259l0.014-0.032zM15.992 27.651l-0.609-1.067c0.081-0.027 0.148-0.055 0.212-0.085l-0.011 0.005c0.16-0.095 0.297-0.207 0.415-0.338l0.001-0.002c0.119 0.132 0.256 0.245 0.408 0.335l0.008 0.004c0.054 0.030 0.113 0.043 0.169 0.068zM11.483 8.136c1.443 0.339 2.657 1.154 3.498 2.267l0.011 0.015c0.254 0.439 0.422 0.957 0.47 1.51l0.001 0.014c-0.013 0.157-0.021 0.34-0.021 0.525s0.008 0.368 0.022 0.549l-0.002-0.024c-0.019 0.207-0.044 0.407-0.076 0.587-0.036 0.197-0.158 0.361-0.324 0.453l-0.003 0.002c-0.108 0.061-0.238 0.097-0.376 0.097-0.098 0-0.192-0.018-0.278-0.051l0.005 0.002-0.034-0.014c-0.446-0.309-0.955-0.585-1.493-0.804l-0.053-0.019c-0.456-0.315-0.834-0.71-1.121-1.167l-0.010-0.017c-0.314-0.654-0.497-1.421-0.497-2.232 0-0.606 0.102-1.188 0.291-1.73l-0.011 0.037zM16.413 14.963c0.035 0.017 0.079 0.035 0.125 0.051l0.010 0.003c-0.165 0.186-0.318 0.391-0.453 0.608l-0.011 0.019c-0.033 0.057-0.057 0.117-0.090 0.179-0.030-0.058-0.054-0.117-0.090-0.175-0.145-0.237-0.298-0.442-0.467-0.632l0.004 0.004c0.044-0.021 0.090-0.030 0.134-0.054 0.161-0.095 0.298-0.209 0.415-0.341l0.002-0.002c0.119 0.133 0.256 0.246 0.409 0.336l0.008 0.004zM19.632 14.204c0.225-0.094 0.518-0.196 0.818-0.283l0.064-0.016c0.178 0.504 0.281 1.086 0.281 1.692 0 0.811-0.185 1.579-0.515 2.264l0.014-0.031c-0.296 0.476-0.676 0.872-1.123 1.177l-0.013 0.009c-0.59 0.239-1.098 0.515-1.569 0.838l0.028-0.018c-0.089 0.037-0.192 0.058-0.3 0.058-0.14 0-0.271-0.036-0.386-0.099l0.004 0.002c-0.168-0.093-0.288-0.253-0.325-0.444l-0.001-0.004c-0.032-0.179-0.057-0.38-0.077-0.587 0.013-0.157 0.021-0.34 0.021-0.524s-0.008-0.367-0.023-0.548l0.002 0.024c0.048-0.567 0.217-1.085 0.48-1.542l-0.010 0.018c0.305-0.488 0.696-0.893 1.156-1.204l0.014-0.009c0.421-0.296 0.902-0.555 1.412-0.756l0.047-0.016zM16.087 21.417c-0.035 0.058-0.059 0.119-0.090 0.179-0.031-0.059-0.054-0.12-0.090-0.179-0.145-0.239-0.298-0.446-0.468-0.639l0.004 0.005c0.046-0.021 0.096-0.030 0.14-0.056 0.159-0.094 0.295-0.206 0.412-0.335l0.001-0.002c0.118 0.131 0.254 0.244 0.405 0.334l0.008 0.004c0.045 0.024 0.094 0.035 0.14 0.056-0.163 0.187-0.315 0.394-0.449 0.613l-0.011 0.020zM12.834 19.013c-0.461-0.314-0.842-0.71-1.129-1.171l-0.010-0.016c-0.314-0.653-0.497-1.419-0.497-2.228 0-0.606 0.103-1.188 0.292-1.73l-0.011 0.037c0.116 0.032 0.249 0.073 0.395 0.122s0.313 0.107 0.486 0.179c0.558 0.217 1.040 0.478 1.483 0.79l-0.022-0.015c0.472 0.32 0.862 0.724 1.156 1.194l0.010 0.017c0.254 0.439 0.423 0.957 0.47 1.51l0.001 0.014c-0.013 0.157-0.020 0.34-0.020 0.524s0.007 0.367 0.022 0.548l-0.002-0.024c-0.019 0.207-0.044 0.407-0.076 0.587-0.037 0.195-0.158 0.356-0.322 0.447l-0.003 0.002c-0.11 0.063-0.242 0.099-0.383 0.099-0.096 0-0.187-0.017-0.272-0.048l0.005 0.002-0.032-0.013c-0.443-0.307-0.95-0.584-1.485-0.805l-0.054-0.020zM11.481 19.674c1.443 0.34 2.657 1.156 3.498 2.269l0.011 0.015c0.258 0.444 0.428 0.969 0.473 1.53l0.001 0.013c-0.012 0.152-0.019 0.328-0.019 0.507s0.007 0.355 0.021 0.53l-0.001-0.023c-0.019 0.213-0.046 0.42-0.079 0.606-0.037 0.195-0.157 0.356-0.322 0.447l-0.003 0.002c-0.109 0.060-0.239 0.096-0.378 0.096-0.108 0-0.211-0.022-0.305-0.061l0.005 0.002c-1.114-0.38-2.035-1.082-2.678-1.994l-0.011-0.017c-0.314-0.654-0.497-1.421-0.497-2.231 0-0.606 0.102-1.188 0.291-1.729l-0.011 0.037zM20.296 12.055c-0.296 0.474-0.674 0.868-1.117 1.175l-0.013 0.009c-0.592 0.238-1.101 0.514-1.573 0.84l0.026-0.017h-0.005c-0.089 0.038-0.193 0.060-0.302 0.060-0.138 0-0.267-0.035-0.38-0.097l0.004 0.002c-0.169-0.094-0.291-0.257-0.327-0.45l-0.001-0.004c-0.032-0.179-0.057-0.379-0.077-0.586 0.013-0.157 0.021-0.34 0.021-0.525s-0.008-0.368-0.022-0.549l0.002 0.024c0.047-0.567 0.216-1.085 0.479-1.542l-0.009 0.018c0.383-0.593 0.89-1.075 1.488-1.418l0.021-0.011c0.066-0.026 0.122-0.062 0.171-0.107l-0 0c0.525-0.297 1.132-0.553 1.771-0.736l0.060-0.015c0.178 0.506 0.281 1.089 0.281 1.696 0 0.81-0.183 1.578-0.511 2.263l0.014-0.032zM8.195 5.876c1.758-1.384 3.932-2.315 6.306-2.585l0.058-0.005c-0.63 1.242-1.129 2.683-1.423 4.197l-0.017 0.105c-0.539-0.25-1.17-0.462-1.828-0.604l-0.061-0.011c-0.029-0.005-0.062-0.009-0.096-0.009-0.223 0-0.415 0.136-0.496 0.33l-0.001 0.004c-0.082 0.204-0.165 0.461-0.233 0.725l-0.011 0.048zM3.199 16c0.005-2.982 1.033-5.723 2.751-7.891l-0.020 0.026 4.794 4.794c-0.036 0.040-0.066 0.085-0.088 0.135l-0.001 0.003c-0.049 0.123-1.198 3.037 0.144 5.3 0.039 0.065 0.090 0.127 0.129 0.192-0.124 0.056-0.221 0.155-0.273 0.277l-0.001 0.003c-0.049 0.124-1.198 3.035 0.144 5.301 0.775 1.134 1.878 1.993 3.171 2.448l0.045 0.014c0.053 0.020 0.121 0.040 0.191 0.056l0.012 0.002 1.214 2.125c-6.807-0.333-12.201-5.928-12.211-12.785v-0.001zM23.865 26.070c-1.991 1.576-4.505 2.573-7.245 2.702l-0.029 0.001 1.152-2.097c0.103-0.022 0.19-0.048 0.274-0.079l-0.014 0.005c1.337-0.468 2.439-1.327 3.199-2.439l0.014-0.022c0.078-0.131 0.159-0.287 0.229-0.449l0.011-0.028zM26.125 23.803l-4.652-4.652c-0.057-0.179-0.101-0.29-0.11-0.312-0.053-0.126-0.15-0.225-0.271-0.279l-0.003-0.001c0.042-0.064 0.090-0.125 0.128-0.19 1.345-2.265 0.195-5.179 0.146-5.302-0.052-0.124-0.147-0.223-0.266-0.278l-0.003-0.001c0.042-0.063 0.090-0.123 0.125-0.186 1.345-2.27 0.195-5.179 0.145-5.302-0.083-0.196-0.274-0.33-0.496-0.33-0.036 0-0.070 0.003-0.104 0.010l0.003-0.001c-0.718 0.153-1.35 0.365-1.947 0.639l0.058-0.024c-0.314-1.622-0.814-3.065-1.49-4.405l0.044 0.096c6.425 0.733 11.369 6.139 11.369 12.7 0 2.96-1.006 5.685-2.696 7.851l0.021-0.028z"></path>
</svg>
